<svg width="201" height="38" viewBox="0 0 201 38" fill="none" xmlns="http://www.w3.org/2000/svg">
<path d="M51.7417 10.3765L51.1806 11.0748C50.7654 10.6287 50.1717 10.3518 49.5938 10.3518C48.4547 10.3518 47.5592 11.2283 47.5592 12.3492C47.5592 13.47 48.4547 14.3555 49.5938 14.3555C50.1639 14.3555 50.7497 14.0955 51.1806 13.6819L51.7507 14.3152C51.1728 14.8834 50.3513 15.2488 49.5455 15.2488C47.8768 15.2488 46.5828 13.9901 46.5828 12.3582C46.5828 10.7419 47.8925 9.5 49.577 9.5C50.3827 9.5 51.1885 9.83289 51.7417 10.3765Z" fill="white"/>
<path d="M56.6896 15.2086H55.738V13.3492L53.6136 9.52484H54.5821L56.2093 12.2933L57.804 9.52484H58.7804L56.6885 13.3167V15.2086H56.6896Z" fill="white"/>
<path d="M63.5003 9.52368C65.2095 9.52368 66.4462 10.7174 66.4462 12.3661C66.4462 14.0059 65.2016 15.2086 63.4756 15.2086H61.1649V9.5248H63.5003V9.52368ZM62.1256 14.3478H63.525C64.6315 14.3478 65.4777 13.5273 65.4777 12.3751C65.4777 11.2139 64.6068 10.3856 63.4835 10.3856H62.1256V14.3478Z" fill="white"/>
<path d="M70.0587 10.3845V11.9189H72.8418V12.7797H70.0587V14.3467H73.2649V15.2075H69.098V9.52368H73.1672V10.3845H70.0587Z" fill="white"/>
<path d="M85.3089 9.86548V15.2085H84.9667V9.86548H83.0465V9.53259H87.2291V9.86548H85.3089Z" fill="white"/>
<path d="M90.2727 9.86532V12.1306H93.2342V12.4713H90.2727V14.8744H93.7067V15.2073H89.9315V9.53131H93.6012V9.8642H90.2727V9.86532Z" fill="white"/>
<path d="M101.16 10.287L100.957 10.547C100.485 10.1088 99.8426 9.84875 99.1671 9.84875C97.7272 9.84875 96.5635 10.9696 96.5635 12.3572C96.5635 13.7538 97.7272 14.8825 99.1671 14.8825C99.8426 14.8825 100.477 14.6224 100.957 14.192L101.169 14.4274C100.641 14.915 99.9156 15.2154 99.1592 15.2154C97.5398 15.2154 96.2212 13.9409 96.2212 12.365C96.2212 10.7891 97.5398 9.52258 99.1592 9.52258C99.9234 9.5237 100.632 9.81624 101.16 10.287Z" fill="white"/>
<path d="M108.362 15.2085V12.5286H104.513V15.2085H104.17V9.53259H104.513V12.1957H108.362V9.53259H108.704V15.2085H108.362Z" fill="white"/>
<path d="M78.8234 9.52368H77.838L75.3242 15.2086H76.3253L76.8707 13.9252H76.9043L77.2735 13.0723H77.2287L78.3026 10.547L78.3352 10.6243L78.352 10.5829L80.3384 15.1671H80.2699L80.2879 15.2086H81.3136L78.8234 9.52368Z" fill="white"/>
<path d="M54.0573 31.6343H49.9094L49.1208 34H46.6052L50.8793 22.5184H53.0716L57.3693 34H54.8537L54.0573 31.6343ZM50.5481 29.718H53.4185L51.9754 25.4203L50.5481 29.718ZM57.9371 29.6707C57.9371 28.3407 58.2341 27.2813 58.8282 26.4928C59.4275 25.7042 60.245 25.3099 61.2806 25.3099C62.1113 25.3099 62.7973 25.6201 63.3388 26.2404V21.8875H65.6257V34H63.5675L63.4571 33.0931C62.8893 33.8029 62.1586 34.1577 61.2648 34.1577C60.2607 34.1577 59.4538 33.7634 58.8439 32.9749C58.2394 32.181 57.9371 31.0796 57.9371 29.6707ZM60.216 29.8363C60.216 30.6354 60.3554 31.2479 60.634 31.6737C60.9126 32.0995 61.3174 32.3125 61.8484 32.3125C62.5529 32.3125 63.0497 32.0154 63.3388 31.4214V28.0541C63.0549 27.4601 62.5634 27.1631 61.8642 27.1631C60.7654 27.1631 60.216 28.0541 60.216 29.8363ZM72.3364 34C72.2313 33.795 72.1551 33.54 72.1077 33.2351C71.5557 33.8502 70.8381 34.1577 69.9549 34.1577C69.119 34.1577 68.4251 33.9159 67.8731 33.4322C67.3264 32.9486 67.053 32.3387 67.053 31.6027C67.053 30.6985 67.3868 30.0046 68.0545 29.5209C68.7274 29.0372 69.6973 28.7928 70.9643 28.7875H72.0131V28.2986C72.0131 27.9043 71.9106 27.5889 71.7056 27.3523C71.5058 27.1157 71.1877 26.9975 70.7514 26.9975C70.3676 26.9975 70.0653 27.0895 69.8445 27.2735C69.629 27.4575 69.5212 27.7098 69.5212 28.0305H67.2422C67.2422 27.5363 67.3947 27.0789 67.6996 26.6584C68.0045 26.2378 68.4356 25.9092 68.9929 25.6727C69.5501 25.4308 70.1757 25.3099 70.8697 25.3099C71.9211 25.3099 72.7544 25.5754 73.3695 26.1064C73.9898 26.6321 74.3 27.3733 74.3 28.3301V32.0286C74.3052 32.8382 74.4183 33.4506 74.6391 33.8659V34H72.3364ZM70.4517 32.415C70.7882 32.415 71.0984 32.3414 71.3823 32.1942C71.6661 32.0417 71.8764 31.8393 72.0131 31.587V30.1202H71.1615C70.0207 30.1202 69.4135 30.5145 69.3399 31.3031L69.332 31.4371C69.332 31.721 69.4319 31.955 69.6316 32.139C69.8314 32.323 70.1048 32.415 70.4517 32.415ZM83.7313 29.8127C83.7313 31.127 83.4317 32.181 82.8324 32.9749C82.2383 33.7634 81.434 34.1577 80.4193 34.1577C79.5571 34.1577 78.8606 33.8581 78.3296 33.2587V37.2805H76.0506V25.4676H78.164L78.2429 26.3035C78.7949 25.6411 79.5151 25.3099 80.4035 25.3099C81.455 25.3099 82.2725 25.6989 82.856 26.477C83.4396 27.2551 83.7313 28.3275 83.7313 29.6944V29.8127ZM81.4524 29.6471C81.4524 28.8532 81.3104 28.2408 81.0265 27.8097C80.7479 27.3786 80.3405 27.1631 79.8042 27.1631C79.0893 27.1631 78.5977 27.4364 78.3296 27.9832V31.4766C78.6082 32.0391 79.105 32.3203 79.82 32.3203C80.9082 32.3203 81.4524 31.4292 81.4524 29.6471ZM87.8792 23.37V25.4676H89.3381V27.1394H87.8792V31.3977C87.8792 31.7131 87.9397 31.9392 88.0606 32.0759C88.1815 32.2126 88.4128 32.2809 88.7546 32.2809C89.0069 32.2809 89.2303 32.2625 89.4248 32.2257V33.9527C88.978 34.0894 88.518 34.1577 88.0448 34.1577C86.4467 34.1577 85.6318 33.3507 85.6003 31.7368V27.1394H84.3543V25.4676H85.6003V23.37H87.8792ZM93.0129 34H90.726V25.4676H93.0129V34ZM90.5919 23.2596C90.5919 22.9179 90.705 22.6366 90.931 22.4158C91.1623 22.195 91.4751 22.0846 91.8694 22.0846C92.2585 22.0846 92.5686 22.195 92.7999 22.4158C93.0313 22.6366 93.1469 22.9179 93.1469 23.2596C93.1469 23.6066 93.0286 23.8905 92.7921 24.1113C92.5607 24.3321 92.2532 24.4425 91.8694 24.4425C91.4857 24.4425 91.1755 24.3321 90.9389 24.1113C90.7076 23.8905 90.5919 23.6066 90.5919 23.2596ZM98.0913 31.2163L99.6763 25.4676H102.058L99.1795 34H97.003L94.1247 25.4676H96.5062L98.0913 31.2163ZM106.884 34.1577C105.633 34.1577 104.613 33.7739 103.824 33.0064C103.041 32.2389 102.649 31.2163 102.649 29.9388V29.718C102.649 28.8611 102.815 28.0962 103.146 27.4233C103.477 26.7451 103.945 26.2247 104.55 25.8619C105.16 25.4939 105.853 25.3099 106.632 25.3099C107.799 25.3099 108.716 25.6779 109.384 26.4139C110.057 27.1499 110.393 28.1935 110.393 29.5446V30.4751H104.96C105.033 31.0323 105.254 31.4792 105.622 31.8156C105.995 32.1521 106.466 32.3203 107.034 32.3203C107.912 32.3203 108.598 32.0023 109.092 31.3662L110.212 32.62C109.87 33.1037 109.407 33.4822 108.824 33.7555C108.24 34.0237 107.594 34.1577 106.884 34.1577ZM106.624 27.1552C106.172 27.1552 105.804 27.3076 105.52 27.6125C105.241 27.9175 105.062 28.3538 104.983 28.9216H108.153V28.7402C108.143 28.2355 108.006 27.8465 107.743 27.5731C107.481 27.2945 107.107 27.1552 106.624 27.1552ZM118.381 34H116.016V22.5184H118.381V34ZM122.529 25.4676L122.6 26.4533C123.21 25.6911 124.027 25.3099 125.053 25.3099C125.957 25.3099 126.63 25.5754 127.071 26.1064C127.513 26.6373 127.739 27.4312 127.75 28.4879V34H125.471V28.5431C125.471 28.0594 125.365 27.7098 125.155 27.4943C124.945 27.2735 124.595 27.1631 124.106 27.1631C123.465 27.1631 122.984 27.4364 122.663 27.9832V34H120.384V25.4676H122.529ZM132.213 23.37V25.4676H133.672V27.1394H132.213V31.3977C132.213 31.7131 132.273 31.9392 132.394 32.0759C132.515 32.2126 132.746 32.2809 133.088 32.2809C133.341 32.2809 133.564 32.2625 133.758 32.2257V33.9527C133.312 34.0894 132.852 34.1577 132.378 34.1577C130.78 34.1577 129.965 33.3507 129.934 31.7368V27.1394H128.688V25.4676H129.934V23.37H132.213ZM138.868 34.1577C137.617 34.1577 136.597 33.7739 135.809 33.0064C135.025 32.2389 134.634 31.2163 134.634 29.9388V29.718C134.634 28.8611 134.799 28.0962 135.131 27.4233C135.462 26.7451 135.93 26.2247 136.534 25.8619C137.144 25.4939 137.838 25.3099 138.616 25.3099C139.783 25.3099 140.701 25.6779 141.368 26.4139C142.041 27.1499 142.378 28.1935 142.378 29.5446V30.4751H136.944C137.018 31.0323 137.239 31.4792 137.607 31.8156C137.98 32.1521 138.451 32.3203 139.018 32.3203C139.896 32.3203 140.582 32.0023 141.076 31.3662L142.196 32.62C141.855 33.1037 141.392 33.4822 140.808 33.7555C140.225 34.0237 139.578 34.1577 138.868 34.1577ZM138.608 27.1552C138.156 27.1552 137.788 27.3076 137.504 27.6125C137.226 27.9175 137.047 28.3538 136.968 28.9216H140.138V28.7402C140.128 28.2355 139.991 27.8465 139.728 27.5731C139.465 27.2945 139.092 27.1552 138.608 27.1552ZM146.084 34H143.797V21.8875H146.084V34ZM150.374 34H148.087V21.8875H150.374V34ZM154.664 34H152.377V25.4676H154.664V34ZM152.243 23.2596C152.243 22.9179 152.356 22.6366 152.582 22.4158C152.813 22.195 153.126 22.0846 153.52 22.0846C153.909 22.0846 154.219 22.195 154.451 22.4158C154.682 22.6366 154.798 22.9179 154.798 23.2596C154.798 23.6066 154.679 23.8905 154.443 24.1113C154.211 24.3321 153.904 24.4425 153.52 24.4425C153.136 24.4425 152.826 24.3321 152.59 24.1113C152.358 23.8905 152.243 23.6066 152.243 23.2596ZM156.217 29.6707C156.217 28.3617 156.527 27.3076 157.148 26.5085C157.773 25.7095 158.614 25.3099 159.671 25.3099C160.607 25.3099 161.335 25.6306 161.855 26.272L161.95 25.4676H164.016V33.7161C164.016 34.4626 163.845 35.1119 163.504 35.6639C163.167 36.2159 162.691 36.6365 162.076 36.9256C161.461 37.2148 160.741 37.3593 159.916 37.3593C159.29 37.3593 158.68 37.2332 158.086 36.9808C157.492 36.7337 157.042 36.413 156.738 36.0188L157.747 34.6309C158.315 35.267 159.003 35.585 159.813 35.585C160.418 35.585 160.888 35.4221 161.225 35.0961C161.561 34.7754 161.729 34.3181 161.729 33.724V33.2666C161.204 33.8607 160.512 34.1577 159.655 34.1577C158.63 34.1577 157.8 33.7582 157.163 32.9591C156.533 32.1547 156.217 31.0902 156.217 29.7654V29.6707ZM158.496 29.8363C158.496 30.6091 158.651 31.2163 158.961 31.6579C159.272 32.0943 159.697 32.3125 160.239 32.3125C160.933 32.3125 161.43 32.0522 161.729 31.5318V27.9437C161.424 27.4233 160.933 27.1631 160.255 27.1631C159.708 27.1631 159.277 27.3865 158.961 27.8333C158.651 28.2802 158.496 28.9479 158.496 29.8363ZM169.702 34.1577C168.451 34.1577 167.431 33.7739 166.642 33.0064C165.859 32.2389 165.467 31.2163 165.467 29.9388V29.718C165.467 28.8611 165.633 28.0962 165.964 27.4233C166.295 26.7451 166.763 26.2247 167.368 25.8619C167.977 25.4939 168.671 25.3099 169.449 25.3099C170.616 25.3099 171.534 25.6779 172.202 26.4139C172.874 27.1499 173.211 28.1935 173.211 29.5446V30.4751H167.778C167.851 31.0323 168.072 31.4792 168.44 31.8156C168.813 32.1521 169.284 32.3203 169.852 32.3203C170.73 32.3203 171.416 32.0023 171.91 31.3662L173.03 32.62C172.688 33.1037 172.225 33.4822 171.642 33.7555C171.058 34.0237 170.411 34.1577 169.702 34.1577ZM169.441 27.1552C168.989 27.1552 168.621 27.3076 168.337 27.6125C168.059 27.9175 167.88 28.3538 167.801 28.9216H170.971V28.7402C170.961 28.2355 170.824 27.8465 170.561 27.5731C170.298 27.2945 169.925 27.1552 169.441 27.1552ZM176.61 25.4676L176.681 26.4533C177.29 25.6911 178.108 25.3099 179.133 25.3099C180.037 25.3099 180.71 25.5754 181.152 26.1064C181.593 26.6373 181.819 27.4312 181.83 28.4879V34H179.551V28.5431C179.551 28.0594 179.446 27.7098 179.236 27.4943C179.025 27.2735 178.676 27.1631 178.187 27.1631C177.545 27.1631 177.064 27.4364 176.744 27.9832V34H174.465V25.4676H176.61ZM187.113 32.3203C187.534 32.3203 187.876 32.2047 188.139 31.9734C188.401 31.742 188.538 31.4345 188.549 31.0507H190.686C190.68 31.629 190.523 32.16 190.213 32.6437C189.902 33.1221 189.477 33.4953 188.935 33.7634C188.399 34.0263 187.805 34.1577 187.153 34.1577C185.933 34.1577 184.971 33.7713 184.267 32.9985C183.562 32.2205 183.21 31.148 183.21 29.7811V29.6313C183.21 28.317 183.56 27.2682 184.259 26.4849C184.958 25.7016 185.917 25.3099 187.137 25.3099C188.204 25.3099 189.059 25.6148 189.7 26.2247C190.347 26.8292 190.675 27.6362 190.686 28.6456H188.549C188.538 28.204 188.401 27.8465 188.139 27.5731C187.876 27.2945 187.529 27.1552 187.098 27.1552C186.567 27.1552 186.165 27.3497 185.891 27.7387C185.623 28.1225 185.489 28.7481 185.489 29.6155V29.8521C185.489 30.73 185.623 31.3609 185.891 31.7447C186.159 32.1284 186.567 32.3203 187.113 32.3203ZM195.914 34.1577C194.663 34.1577 193.643 33.7739 192.854 33.0064C192.071 32.2389 191.679 31.2163 191.679 29.9388V29.718C191.679 28.8611 191.845 28.0962 192.176 27.4233C192.507 26.7451 192.975 26.2247 193.58 25.8619C194.19 25.4939 194.884 25.3099 195.662 25.3099C196.829 25.3099 197.746 25.6779 198.414 26.4139C199.087 27.1499 199.423 28.1935 199.423 29.5446V30.4751H193.99C194.063 31.0323 194.284 31.4792 194.652 31.8156C195.025 32.1521 195.496 32.3203 196.064 32.3203C196.942 32.3203 197.628 32.0023 198.122 31.3662L199.242 32.62C198.9 33.1037 198.437 33.4822 197.854 33.7555C197.27 34.0237 196.624 34.1577 195.914 34.1577ZM195.654 27.1552C195.202 27.1552 194.834 27.3076 194.55 27.6125C194.271 27.9175 194.092 28.3538 194.013 28.9216H197.184V28.7402C197.173 28.2355 197.036 27.8465 196.773 27.5731C196.511 27.2945 196.137 27.1552 195.654 27.1552Z" fill="white"/>
<path d="M26.5649 12.5916C26.2922 12.2755 26.0083 11.9684 25.6997 11.686C24.9074 10.954 23.9961 10.3499 23.0119 9.90829C22.9233 9.86906 22.8335 9.82983 22.7437 9.79285C21.6776 9.35348 20.5363 9.10353 19.3849 9.05645L19.3512 9.02283H18.9472V9.68637L18.9741 9.79509V15.4116C20.9156 15.4116 22.4946 16.9875 22.4946 18.9244C22.4946 20.8612 20.9156 22.4371 18.9741 22.4371C17.1774 22.4371 15.6916 21.0865 15.4806 19.3503C15.4806 19.348 15.4806 19.3469 15.4817 19.3458H9.08386C9.16579 21.2748 9.80546 23.0625 10.8447 24.5532C10.9333 24.6833 11.1544 24.9724 11.1544 24.9724C12.0017 26.0608 13.07 26.9698 14.2933 27.6277C14.6681 27.8407 14.8892 27.9203 14.8892 27.9203C16.5187 28.5098 18.055 28.9223 19.8102 28.7732C22.4306 28.5513 24.8917 27.259 26.5762 25.2437C27.6995 23.8998 28.4739 22.2185 28.7522 20.4812C28.8341 19.9667 28.8756 19.4456 28.8756 18.9244C28.8745 16.6177 28.0732 14.3446 26.5649 12.5916Z" fill="#4A71EA"/>
<path d="M37.9502 18.9344H31.5703C31.5703 20.1999 31.3795 21.4216 31.0294 22.575L30.888 23.0311L31.9855 23.484L36.7405 25.5878C37.5204 23.5176 37.9502 21.2748 37.9502 18.9344Z" fill="#309AEA"/>
<path d="M36.6475 25.8276L36.5488 26.0506L32.4302 24.2281L30.9926 23.5724L30.7176 25.0038L28.8884 34.0714L28.6146 35.2147C28.6146 35.2147 28.9737 35.0163 29.1252 34.9232C29.1252 34.9232 29.1252 34.9232 29.1252 34.9244C29.1308 34.921 29.1375 34.9165 29.1431 34.912C29.1499 34.9076 29.1588 34.9031 29.1645 34.8997C29.1667 34.8986 29.1701 34.8952 29.1734 34.893C32.5323 32.7488 35.174 29.5779 36.6475 25.8276Z" fill="#28A8EA"/>
<path d="M30.3203 24.4097L30.2193 24.5834C28.7649 27.455 26.2399 29.6967 23.1694 30.7828L27.0973 34.4154L28.0916 35.348L28.3384 34.2563L30.2844 24.6058L30.3203 24.4097Z" fill="#28A8EA"/>
<path d="M26.7 34.7292L22.6263 30.961C21.4693 31.3118 20.2438 31.5012 18.9745 31.5012C18.9218 31.5012 18.869 31.4979 18.8163 31.4967L17.4225 34.1296L16.2329 36.3769L15.6348 37.5056C16.7211 37.7331 17.8366 37.8586 18.9757 37.8676C21.9406 37.8676 24.7484 37.185 27.251 35.97L27.7796 35.7234L26.7 34.7292Z" fill="#1FB6EA"/>
<path d="M18.2585 31.4812C17.3876 31.4319 16.5404 31.294 15.7245 31.0766L16.3103 33.288L16.6346 34.5624L17.2541 33.3799L18.2585 31.4812Z" fill="#1CBEEC"/>
<path d="M16.0101 35.7236L16.284 35.1956L15.9518 33.8977C15.9529 33.8977 15.9529 33.8966 15.954 33.8966L15.8856 33.6399L15.1628 30.914C12.9363 30.2068 10.978 28.8965 9.4776 27.1771L8.91087 27.9225L7.38351 29.9322L5.79218 32.0248C8.33404 34.5792 11.5537 36.5351 15.1269 37.3936L15.8844 35.9634L16.0101 35.7269C16.0113 35.7247 16.0101 35.7247 16.0101 35.7236Z" fill="#18C6EF"/>
<path d="M6.96123 29.6609L7.63121 28.8046L6.72444 27.6243L0.491539 19.3514L0 18.6923V19.2684L0.0022441 19.274C0.0482558 23.6341 2.1199 28.1635 5.4406 31.6605L6.96123 29.6609Z" fill="#15CEF1"/>
<path d="M7.25405 12.5042L8.0037 11.9393L6.50215 11.4002L2.36222 9.90833C1.2658 11.9146 0.515021 14.1384 0.186206 16.4978C0.186206 16.4978 0.0571485 17.3754 0.050415 17.6915L0.79558 17.177L7.06215 12.6488L7.25629 12.5087C7.25517 12.5076 7.25517 12.5064 7.25405 12.5042Z" fill="#0AE7F8"/>
<path d="M9.14796 26.7825C7.41747 24.6305 6.3794 21.9012 6.3794 18.9343C6.3794 16.844 6.89563 14.8724 7.80464 13.1373C7.97859 12.8291 8.39157 12.2877 8.39157 12.2877L7.06621 13.264L1.12846 17.5546V17.5557L0.229553 18.2069L1.3473 19.6573L7.41074 27.7049C7.41074 27.7049 7.41074 27.7049 7.41186 27.7049C7.61723 27.9717 7.92921 28.3685 7.92921 28.3685L8.40055 27.761C8.40167 27.761 8.40279 27.7621 8.40279 27.7621L9.14796 26.7825Z" fill="#0EDFF6"/>
<path d="M12.3502 3.98234L11.669 3.70773L10.9788 3.43089L10.9665 3.4264L9.21581 2.72363C6.49214 4.37688 4.21849 6.70263 2.61145 9.46888L6.99491 11.0493L7.47747 11.223C7.47859 11.2219 7.48083 11.2208 7.48196 11.2196L8.73774 11.659C8.73774 11.659 8.88251 11.4225 9.00483 11.2678C9.61084 10.4855 10.3055 9.77711 11.0754 9.15616L12.0943 5.06956C12.0932 5.06844 12.0921 5.06732 12.091 5.06732L12.3502 3.98234Z" fill="#07EFFA"/>
<path d="M11.6588 3.16414C11.6621 3.16527 11.6666 3.16751 11.6711 3.16863L11.9865 3.29528C12.4971 3.5004 13.4633 3.88821 14.0256 4.11462L14.1198 4.15273C14.131 4.15721 14.1423 4.1617 14.1535 4.16618L14.2489 4.20429C14.3016 4.22558 14.3465 4.24352 14.3813 4.25697L14.4442 4.28275C14.4498 4.28499 14.4543 4.28723 14.4576 4.28835L18.9746 6.103V0C15.6214 0 12.4847 0.873138 9.76331 2.40309L11.6588 3.16414Z" fill="#00FFFF"/>
<path d="M13.6793 4.52016L12.8152 4.17719L12.2956 6.34042L11.7131 8.67626C13.603 7.34021 15.8721 6.50742 18.3276 6.38301L13.6815 4.51568C13.6815 4.5168 13.6804 4.51904 13.6793 4.52016Z" fill="#03F7FD"/>
</svg>
